[
  {
    "IK": "36003030000",
    "Nimi": "Mati Maasikas",
    "Aine": "matemaatika",
    "Klass": "",
    "Synniaeg":  "2012-04-23T00:00:00Z"
  },
  {
    "IK": "36004040000",
    "Nimi": "Riho Raasukas",
    "Aine": "joonistamine",
    "Klass": "1B",
    "Kodulinn" : "Viljandi"
  },
  {
    "IK": "46005050000",
    "Nimi": "Maali Murakas",
    "Aine": "laulmine",
    "Klass": "",
    "Kinganumber":  49

  },
  {
    "IK": "46006060000",
    "Nimi": "Evi Tark",
    "Aine": "eesti keel",
    "Klass": "2A"
  }
]